…
## What is mean total number of steps taken per day?


```r
library(dplyr)
library(ggplot2)

steps_per_day <- select(dat, steps, date, interval) %>%
                    group_by(date) %>%
                    summarize(total_steps = sum(steps, na.rm = TRUE))
steps_per_day
```

```
## # A tibble: 61 x 2
##    date       total_steps
##    <date>           <int>
##  1 2012-10-01           0
##  2 2012-10-02         126
##  3 2012-10-03       11352
##  4 2012-10-04       12116
##  5 2012-10-05       13294
##  6 2012-10-06       15420
##  7 2012-10-07       11015
##  8 2012-10-08           0
##  9 2012-10-09       12811
## 10 2012-10-10        9900
## # … with 51 more rows
```
…
## What is the average daily activity pattern?


```r
steps_per_interval <- select(dat, steps, date, interval) %>%
  group_by(interval) %>%
  summarize(average_steps = mean(steps, na.rm = TRUE))
steps_per_interval
```

```
## # A tibble: 288 x 2
##    interval average_steps
##       <int>         <dbl>
##  1        0        1.72  
##  2        5        0.340 
##  3       10        0.132 
##  4       15        0.151 
##  5       20        0.0755
##  6       25        2.09  
##  7       30        0.528 
##  8       35        0.868 
##  9       40        0     
## 10       45        1.47  
## # … with 278 more rows
```
…
```r
steps_per_day.adj <- select(dat, steps, date, interval) %>%
  group_by(date) %>%
  summarize(total_steps = sum(steps, na.rm = TRUE))
steps_per_day.adj
```

```
## # A tibble: 61 x 2
##    date       total_steps
##    <date>           <dbl>
##  1 2012-10-01       2556.
##  2 2012-10-02        126 
##  3 2012-10-03      11352 
##  4 2012-10-04      12116 
##  5 2012-10-05      13294 
##  6 2012-10-06      15420 
##  7 2012-10-07      11015 
##  8 2012-10-08       3012.
##  9 2012-10-09      12811 
## 10 2012-10-10       9900 
## # … with 51 more rows
```
…
